…
```r
all_trips_v2 %>% 
  group_by(customer_type, month) %>%  
  summarise(number_of_rides = n(),`average_duration_(mins)` = mean(trip_duration)) %>%
  arrange(customer_type,desc(number_of_rides))
```

```
## `summarise()` has grouped output by 'customer_type'. You can override using the
## `.groups` argument.
```

```
## # A tibble: 24 × 4
## # Groups:   customer_type [2]
##    customer_type month  number_of_rides `average_duration_(mins)`
##    <chr>         <ord>            <int>                     <dbl>
##  1 casual        Aug_20          287171                      45.2
##  2 casual        Jul_20          268549                      60.0
##  3 casual        Sep_20          229435                      38.3
##  4 casual        Jun_20          154401                      51.7
##  5 casual        Oct_20          143850                      30.4
##  6 casual        Nov_20           87810                      31.9
##  7 casual        May_20           86786                      51.3
##  8 casual        Mar_21           84032                      38.2
##  9 casual        Dec_20           29997                      26.8
## 10 casual        Apr_20           23597                      73.2
## # … with 14 more rows
```
…
